sim/mac_sim.log
# vsim work.xgemac_top -voptargs="+acc=npr" "+UVM_TESTNAME=xgemac_normal_test" -l mac_sim.log -c -do "log -r /*; add wave -r /*; run -all;  exit" -wlf waveform.wlf 
# Start time: 11:53:55 on Jul 18,2024
# ** Note: (vsim-3812) Design is being optimized...
# ** Warning: (vopt-8637) ../src/tb/in_mon.sv(64): A modport ('pkt_in_mon_mp') should not be used in a hierarchical path.
# ** Warning: (vopt-8637) ../src/tb/in_mon.sv(64): A modport ('pkt_in_mon_mp') should not be used in a hierarchical path.
# ** Warning: (vopt-8637) ../src/tb/in_mon.sv(68): A modport ('pkt_in_mon_mp') should not be used in a hierarchical path.
# ** Warning: (vopt-8637) ../src/tb/in_mon.sv(68): A modport ('pkt_in_mon_mp') should not be used in a hierarchical path.
# ** Warning: (vopt-8637) ../src/tb/in_mon.sv(69): A modport ('pkt_in_mon_mp') should not be used in a hierarchical path.
# ** Warning: (vopt-8637) ../src/tb/in_mon.sv(69): A modport ('pkt_in_mon_mp') should not be used in a hierarchical path.
# ** Warning: (vopt-8637) ../src/tb/in_mon.sv(70): A modport ('pkt_in_mon_mp') should not be used in a hierarchical path.
# ** Warning: (vopt-8637) ../src/tb/in_mon.sv(70): A modport ('pkt_in_mon_mp') should not be used in a hierarchical path.
# ** Warning: (vopt-8637) ../src/tb/in_mon.sv(71): A modport ('pkt_in_mon_mp') should not be used in a hierarchical path.
# ** Warning: (vopt-8637) ../src/tb/in_mon.sv(71): A modport ('pkt_in_mon_mp') should not be used in a hierarchical path.
# ** Warning: (vopt-8637) ../src/tb/in_mon.sv(72): A modport ('pkt_in_mon_mp') should not be used in a hierarchical path.
# ** Warning: (vopt-8637) ../src/tb/in_mon.sv(72): A modport ('pkt_in_mon_mp') should not be used in a hierarchical path.
# ** Warning: (vopt-8637) ../src/tb/out_mon.sv(80): A modport ('pkt_out_mon_mp') should not be used in a hierarchical path.
# ** Warning: (vopt-8637) ../src/tb/out_mon.sv(80): A modport ('pkt_out_mon_mp') should not be used in a hierarchical path.
# ** Warning: (vopt-8637) ../src/tb/out_mon.sv(84): A modport ('pkt_out_mon_mp') should not be used in a hierarchical path.
# ** Warning: (vopt-8637) ../src/tb/out_mon.sv(84): A modport ('pkt_out_mon_mp') should not be used in a hierarchical path.
# ** Warning: (vopt-8637) ../src/tb/out_mon.sv(85): A modport ('pkt_out_mon_mp') should not be used in a hierarchical path.
# ** Warning: (vopt-8637) ../src/tb/out_mon.sv(85): A modport ('pkt_out_mon_mp') should not be used in a hierarchical path.
# ** Warning: (vopt-8637) ../src/tb/out_mon.sv(86): A modport ('pkt_out_mon_mp') should not be used in a hierarchical path.
# ** Warning: (vopt-8637) ../src/tb/out_mon.sv(86): A modport ('pkt_out_mon_mp') should not be used in a hierarchical path.
# ** Warning: (vopt-8637) ../src/tb/out_mon.sv(87): A modport ('pkt_out_mon_mp') should not be used in a hierarchical path.
# ** Warning: (vopt-8637) ../src/tb/out_mon.sv(87): A modport ('pkt_out_mon_mp') should not be used in a hierarchical path.
# ** Warning: (vopt-8637) ../src/tb/out_mon.sv(88): A modport ('pkt_out_mon_mp') should not be used in a hierarchical path.
# ** Warning: (vopt-8637) ../src/tb/out_mon.sv(88): A modport ('pkt_out_mon_mp') should not be used in a hierarchical path.
# ** Warning: (vopt-8637) ../src/tb/out_mon.sv(89): A modport ('pkt_out_mon_mp') should not be used in a hierarchical path.
# ** Warning: (vopt-8637) ../src/tb/out_mon.sv(89): A modport ('pkt_out_mon_mp') should not be used in a hierarchical path.
# ** Warning: (vopt-8637) ../src/tb/out_mon.sv(90): A modport ('pkt_out_mon_mp') should not be used in a hierarchical path.
# ** Warning: (vopt-8637) ../src/tb/out_mon.sv(90): A modport ('pkt_out_mon_mp') should not be used in a hierarchical path.
# ** Warning: (vopt-8637) ../src/tb/wish_mon.sv(29): A modport ('wish_m_mp') should not be used in a hierarchical path.
# ** Warning: (vopt-8637) ../src/tb/wish_mon.sv(29): A modport ('wish_m_mp') should not be used in a hierarchical path.
# ** Warning: (vopt-8637) ../src/tb/wish_mon.sv(33): A modport ('wish_m_mp') should not be used in a hierarchical path.
# ** Warning: (vopt-8637) ../src/tb/wish_mon.sv(33): A modport ('wish_m_mp') should not be used in a hierarchical path.
# ** Warning: (vopt-8637) ../src/tb/wish_mon.sv(34): A modport ('wish_m_mp') should not be used in a hierarchical path.
# ** Warning: (vopt-8637) ../src/tb/wish_mon.sv(34): A modport ('wish_m_mp') should not be used in a hierarchical path.
# ** Warning: (vopt-8637) ../src/tb/wish_mon.sv(35): A modport ('wish_m_mp') should not be used in a hierarchical path.
# ** Warning: (vopt-8637) ../src/tb/wish_mon.sv(35): A modport ('wish_m_mp') should not be used in a hierarchical path.
# ** Warning: (vopt-8637) ../src/tb/wish_mon.sv(36): A modport ('wish_m_mp') should not be used in a hierarchical path.
# ** Warning: (vopt-8637) ../src/tb/wish_mon.sv(36): A modport ('wish_m_mp') should not be used in a hierarchical path.
# ** Warning: (vopt-8637) ../src/tb/wish_mon.sv(37): A modport ('wish_m_mp') should not be used in a hierarchical path.
# ** Warning: (vopt-8637) ../src/tb/wish_mon.sv(37): A modport ('wish_m_mp') should not be used in a hierarchical path.
# ** Warning: (vopt-8637) ../src/tb/wish_mon.sv(39): A modport ('wish_m_mp') should not be used in a hierarchical path.
# ** Warning: (vopt-8637) ../src/tb/wish_mon.sv(39): A modport ('wish_m_mp') should not be used in a hierarchical path.
# ** Warning: (vopt-8637) ../src/tb/wish_mon.sv(40): A modport ('wish_m_mp') should not be used in a hierarchical path.
# ** Warning: (vopt-8637) ../src/tb/wish_mon.sv(40): A modport ('wish_m_mp') should not be used in a hierarchical path.
# ** Warning: (vopt-8637) ../src/tb/wish_mon.sv(52): A modport ('wish_m_mp') should not be used in a hierarchical path.
# ** Warning: (vopt-8637) ../src/tb/wish_mon.sv(52): A modport ('wish_m_mp') should not be used in a hierarchical path.
# ** Warning: ../src/tb/xgemac_scoreboard.sv(61): (vopt-2250) Function "write_inactiveport" has no return value assignment.
# ** Warning: ../src/tb/xgemac_scoreboard.sv(74): (vopt-2250) Function "write_outpassiveport" has no return value assignment.
# ** Warning: ../src/tb/xgemac_scoreboard.sv(88): (vopt-2250) Function "write_wishactiveport" has no return value assignment.
# //  Questa Sim
# //  Version 10.6c linux Jul 25 2017
# //
# //  Copyright 1991-2017 Mentor Graphics Corporation
# //  All Rights Reserved.
# //
# //  QuestaSim and its associated documentation contain trade
# //  secrets and commercial or financial information that are the property of
# //  Mentor Graphics Corporation and are privileged, confidential,
# //  and exempt from disclosure under the Freedom of Information Act,
# //  5 U.S.C. Section 552. Furthermore, this information
# //  is prohibited from disclosure under the Trade Secrets Act,
# //  18 U.S.C. Section 1905.
# //
# Loading sv_std.std
# Loading work.pkt_interface(fast)
# Loading work.wish_intf(fast)
# Loading mtiUvm.uvm_pkg
# Loading work.xgemac_pkg(fast)
# Loading work.xgemac_top_sv_unit(fast)
# Loading work.xgemac_top(fast)
# Loading work.wish_intf(fast)
# Loading work.pkt_interface(fast)
# Loading work.xge_mac(fast)
# Loading work.rx_enqueue(fast)
# Loading work.rx_dequeue(fast)
# Loading work.rx_data_fifo(fast)
# Loading work.generic_fifo(fast)
# Loading work.generic_mem_medium(fast)
# Loading work.generic_fifo_ctrl(fast)
# Loading work.rx_hold_fifo(fast)
# Loading work.generic_fifo(fast__1)
# Loading work.generic_mem_small(fast)
# Loading work.generic_fifo_ctrl(fast__1)
# Loading work.tx_enqueue(fast)
# Loading work.tx_dequeue(fast)
# Loading work.tx_data_fifo(fast)
# Loading work.generic_fifo(fast__2)
# Loading work.generic_mem_medium(fast__1)
# Loading work.generic_fifo_ctrl(fast__2)
# Loading work.tx_hold_fifo(fast)
# Loading work.generic_fifo(fast__3)
# Loading work.generic_fifo_ctrl(fast__3)
# Loading work.fault_sm(fast)
# Loading work.sync_clk_wb(fast)
# Loading work.meta_sync(fast)
# Loading work.meta_sync_single(fast)
# Loading work.meta_sync(fast__1)
# Loading work.meta_sync_single(fast__1)
# Loading work.sync_clk_xgmii_tx(fast)
# Loading work.meta_sync(fast__2)
# Loading work.sync_clk_core(fast)
# Loading work.wishbone_if(fast)
# Loading mtiUvm.questa_uvm_pkg(fast)
# ** Warning: (vsim-8637) ../src/tb/in_mon.sv(64): A modport ('pkt_in_mon_mp') should not be used in a hierarchical path.
#    Time: 0 ps  Iteration: 0  Region: /xgemac_pkg File: ../src/tb/xgemac_pkg.sv
# ** Warning: (vsim-8637) ../src/tb/out_mon.sv(80): A modport ('pkt_out_mon_mp') should not be used in a hierarchical path.
#    Time: 0 ps  Iteration: 0  Region: /xgemac_pkg File: ../src/tb/xgemac_pkg.sv
# ** Warning: (vsim-8637) ../src/tb/wish_mon.sv(29): A modport ('wish_m_mp') should not be used in a hierarchical path.
#    Time: 0 ps  Iteration: 0  Region: /xgemac_pkg File: ../src/tb/xgemac_pkg.sv
# ** Warning: (vsim-8637) ../src/tb/reset_drv.sv(105): A modport ('wish_reset_dr_mp') should not be used in a hierarchical path.
#    Time: 0 ps  Iteration: 0  Region: /xgemac_pkg::reset_drv File: ../src/tb/xgemac_pkg.sv
# ** Warning: (vsim-8637) ../src/tb/reset_drv.sv(104): A modport ('wish_reset_dr_mp') should not be used in a hierarchical path.
#    Time: 0 ps  Iteration: 0  Region: /xgemac_pkg::reset_drv File: ../src/tb/xgemac_pkg.sv
# ** Warning: (vsim-8637) ../src/tb/reset_drv.sv(88): A modport ('pkt_reset_dr_mp') should not be used in a hierarchical path.
#    Time: 0 ps  Iteration: 0  Region: /xgemac_pkg::reset_drv File: ../src/tb/xgemac_pkg.sv
# ** Warning: (vsim-8441) ../src/tb/reset_drv.sv(88): Clocking block output pkt_vif.pkt_reset_dr_mp.pkt_reset_dr_cb.reset_156m25_n is not legal in this
# or another expression.
#    Time: 0 ps  Iteration: 0  Region: /xgemac_pkg::reset_drv File: ../src/tb/xgemac_pkg.sv
# ** Warning: (vsim-8637) ../src/tb/reset_drv.sv(87): A modport ('pkt_reset_dr_mp') should not be used in a hierarchical path.
#    Time: 0 ps  Iteration: 0  Region: /xgemac_pkg::reset_drv File: ../src/tb/xgemac_pkg.sv
# ** Warning: (vsim-8637) ../src/tb/wish_drv.sv(29): A modport ('wish_d_mp') should not be used in a hierarchical path.
#    Time: 0 ps  Iteration: 0  Region: /xgemac_pkg::wish_drv File: ../src/tb/xgemac_pkg.sv
# ** Warning: (vsim-8637) ../src/tb/wish_drv.sv(41): A modport ('wish_d_mp') should not be used in a hierarchical path.
#    Time: 0 ps  Iteration: 0  Region: /xgemac_pkg::wish_drv File: ../src/tb/xgemac_pkg.sv
# ** Warning: (vsim-8637) ../src/tb/wish_drv.sv(42): A modport ('wish_d_mp') should not be used in a hierarchical path.
#    Time: 0 ps  Iteration: 0  Region: /xgemac_pkg::wish_drv File: ../src/tb/xgemac_pkg.sv
# ** Warning: (vsim-8637) ../src/tb/wish_drv.sv(43): A modport ('wish_d_mp') should not be used in a hierarchical path.
#    Time: 0 ps  Iteration: 0  Region: /xgemac_pkg::wish_drv File: ../src/tb/xgemac_pkg.sv
# ** Warning: (vsim-8637) ../src/tb/wish_drv.sv(44): A modport ('wish_d_mp') should not be used in a hierarchical path.
#    Time: 0 ps  Iteration: 0  Region: /xgemac_pkg::wish_drv File: ../src/tb/xgemac_pkg.sv
# ** Warning: (vsim-8637) ../src/tb/wish_drv.sv(45): A modport ('wish_d_mp') should not be used in a hierarchical path.
#    Time: 0 ps  Iteration: 0  Region: /xgemac_pkg::wish_drv File: ../src/tb/xgemac_pkg.sv
# ** Warning: (vsim-3764) ../src/tb/xgemac_scoreboard.sv(4): Stand-alone call to function 'write_inactiveport' treated as implicit void cast.
#    Time: 0 ps  Iteration: 0  Region: /xgemac_pkg::uvm_analysis_imp_inactiveport #(xgemac_pkg::in_seq_item, xgemac_pkg::xgemac_scoreboard) File: ../src/tb/xgemac_pkg.sv
# ** Warning: (vsim-3764) ../src/tb/xgemac_scoreboard.sv(5): Stand-alone call to function 'write_outpassiveport' treated as implicit void cast.
#    Time: 0 ps  Iteration: 0  Region: /xgemac_pkg::uvm_analysis_imp_outpassiveport #(xgemac_pkg::in_seq_item, xgemac_pkg::xgemac_scoreboard) File: ../src/tb/xgemac_pkg.sv
# ** Warning: (vsim-3764) ../src/tb/xgemac_scoreboard.sv(6): Stand-alone call to function 'write_wishactiveport' treated as implicit void cast.
#    Time: 0 ps  Iteration: 0  Region: /xgemac_pkg::uvm_analysis_imp_wishactiveport #(xgemac_pkg::wish_seq_item, xgemac_pkg::xgemac_scoreboard) File: ../src/tb/xgemac_pkg.sv
# Loading /tools/mentor/questasim_10.6c/questasim/uvm-1.1d/linux/uvm_dpi.so
# log -r /*
#  add wave -r /*
#  run -all
# ----------------------------------------------------------------
# UVM-1.1d
# (C) 2007-2013 Mentor Graphics Corporation
# (C) 2007-2013 Cadence Design Systems, Inc.
# (C) 2006-2013 Synopsys, Inc.
# (C) 2011-2013 Cypress Semiconductor Corp.
# ----------------------------------------------------------------
# 
#   ***********       IMPORTANT RELEASE NOTES         ************
# 
#   You are using a version of the UVM library that has been compiled
#   with `UVM_NO_DEPRECATED undefined.
#   See http://www.eda.org/svdb/view.php?id=3313 for more details.
# 
#   You are using a version of the UVM library that has been compiled
#   with `UVM_OBJECT_MUST_HAVE_CONSTRUCTOR undefined.
#   See http://www.eda.org/svdb/view.php?id=3770 for more details.
# 
#       (Specify +UVM_NO_RELNOTES to turn off this notice)
# 
# UVM_INFO verilog_src/questa_uvm_pkg-1.2/src/questa_uvm_pkg.sv(215) @ 0: reporter [Questa UVM] QUESTA_UVM-1.2.3
# UVM_INFO verilog_src/questa_uvm_pkg-1.2/src/questa_uvm_pkg.sv(217) @ 0: reporter [Questa UVM]  questa_uvm::init(+struct)
# UVM_INFO @ 0: reporter [RNTST] Running test xgemac_normal_test...
# UVM_INFO ../src/tb/xgemac_base_test.sv(59) @ 0: uvm_test_top [xgemac_normal_test] Inside BASE_TEST
# UVM_INFO ../src/tb/xgemac_base_test.sv(60) @ 0: uvm_test_top [xgemac_normal_test] Done BASE_TEST
# UVM_INFO ../src/tb/xgemac_normal_test.sv(59) @ 0: uvm_test_top [xgemac_normal_test] Inside xgemac_normal_test
# UVM_WARNING @ 0: reporter@@xgemac_normal_vseq_h [uvm_sequence_base] Body definition undefined
# UVM_INFO ../src/tb/xgemac_base_vseq.sv(58) @ 0: reporter@@xgemac_normal_vseq_h [xgemac_normal_vseq] virtual_seq: Inside Body
# UVM_INFO ../src/tb/xgemac_normal_vseq.sv(41) @ 0: reporter@@xgemac_normal_vseq_h [xgemac_normal_vseq] virtual_seq: Inside Body
# UVM_WARNING @ 0: uvm_test_top.xgemac_env_h.reset_agent_h.reset_seqr_h@@reset_seq_h [uvm_sequence_base] Body definition undefined
# UVM_INFO ../src/tb/reset_seq.sv(15) @ 0: uvm_test_top.xgemac_env_h.reset_agent_h.reset_seqr_h@@reset_seq_h [reset_seq] Starting reset sequence...
# UVM_INFO ../src/tb/reset_seq.sv(17) @ 0: uvm_test_top.xgemac_env_h.reset_agent_h.reset_seqr_h@@reset_seq_h [reset_seq] Reset assertion
# UVM_INFO ../src/tb/in_mon.sv(76) @ 1200: uvm_test_top.xgemac_env_h.in_agent_h.in_mon_h [in_mon] [IN MONITOR] pkt_tx_data = 0, pkt_tx_sop = 0, pkt_tx_eop = 0, pkt_tx_val = 0, pkt_tx_mod = 0, pkt_tx_full = 0
# UVM_INFO ../src/tb/out_mon.sv(96) @ 1200: uvm_test_top.xgemac_env_h.out_agent_h.out_mon_h [out_mon] [OUT MONITOR] pkt_rx_avail = 0, pkt_rx_data = 0,  pkt_rx_eop = 0, pkt_rx_val = 0,
#                                         pkt_rx_sop = 0, pkt_rx_mod = 0,pkt_rx_err = 0
# UVM_INFO ../src/tb/out_mon.sv(96) @ 3600: uvm_test_top.xgemac_env_h.out_agent_h.out_mon_h [out_mon] [OUT MONITOR] pkt_rx_avail = 0, pkt_rx_data = 0,  pkt_rx_eop = 0, pkt_rx_val = 0,
#                                         pkt_rx_sop = 0, pkt_rx_mod = 0,pkt_rx_err = 0
# UVM_INFO ../src/tb/in_mon.sv(76) @ 3600: uvm_test_top.xgemac_env_h.in_agent_h.in_mon_h [in_mon] [IN MONITOR] pkt_tx_data = 0, pkt_tx_sop = 0, pkt_tx_eop = 0, pkt_tx_val = 0, pkt_tx_mod = 0, pkt_tx_full = 0
# UVM_INFO ../src/tb/reset_drv.sv(96) @ 3600: uvm_test_top.xgemac_env_h.reset_agent_h.reset_drv_h [reset_drv] [PKT RESET DRIVER TASK] reset_156m25_n = 0
# UVM_INFO ../src/tb/wish_mon.sv(59) @ 5000: uvm_test_top.xgemac_env_h.wish_agent_h.wish_mon_h [wish_mon] [WISHBONE MONITOR READ TASK] read_address = 0, read_data = 0
# ------------------------------------------------------ 
# UVM_INFO ../src/tb/wish_drv.sv(46) @ 5000: uvm_test_top.xgemac_env_h.wish_agent_h.wish_drv_h [wish_drv] [WISHBONE DRIVER WRITE TASK] write_address = 0, write_data = 1
# ----------------------------------------------------- 
# UVM_INFO ../src/tb/in_mon.sv(76) @ 6000: uvm_test_top.xgemac_env_h.in_agent_h.in_mon_h [in_mon] [IN MONITOR] pkt_tx_data = 0, pkt_tx_sop = 0, pkt_tx_eop = 0, pkt_tx_val = 0, pkt_tx_mod = 0, pkt_tx_full = 0
# UVM_INFO ../src/tb/out_mon.sv(96) @ 6000: uvm_test_top.xgemac_env_h.out_agent_h.out_mon_h [out_mon] [OUT MONITOR] pkt_rx_avail = 0, pkt_rx_data = 0,  pkt_rx_eop = 0, pkt_rx_val = 0,
#                                         pkt_rx_sop = 0, pkt_rx_mod = 0,pkt_rx_err = 0
# UVM_INFO ../src/tb/out_mon.sv(96) @ 8400: uvm_test_top.xgemac_env_h.out_agent_h.out_mon_h [out_mon] [OUT MONITOR] pkt_rx_avail = 0, pkt_rx_data = 0,  pkt_rx_eop = 0, pkt_rx_val = 0,
#                                         pkt_rx_sop = 0, pkt_rx_mod = 0,pkt_rx_err = 0
# UVM_INFO ../src/tb/in_mon.sv(76) @ 8400: uvm_test_top.xgemac_env_h.in_agent_h.in_mon_h [in_mon] [IN MONITOR] pkt_tx_data = 0, pkt_tx_sop = 0, pkt_tx_eop = 0, pkt_tx_val = 0, pkt_tx_mod = 0, pkt_tx_full = 0
# UVM_INFO ../src/tb/in_mon.sv(76) @ 10800: uvm_test_top.xgemac_env_h.in_agent_h.in_mon_h [in_mon] [IN MONITOR] pkt_tx_data = 0, pkt_tx_sop = 0, pkt_tx_eop = 0, pkt_tx_val = 0, pkt_tx_mod = 0, pkt_tx_full = 0
# UVM_INFO ../src/tb/out_mon.sv(96) @ 10800: uvm_test_top.xgemac_env_h.out_agent_h.out_mon_h [out_mon] [OUT MONITOR] pkt_rx_avail = 0, pkt_rx_data = 0,  pkt_rx_eop = 0, pkt_rx_val = 0,
#                                         pkt_rx_sop = 0, pkt_rx_mod = 0,pkt_rx_err = 0
# UVM_INFO ../src/tb/out_mon.sv(96) @ 13200: uvm_test_top.xgemac_env_h.out_agent_h.out_mon_h [out_mon] [OUT MONITOR] pkt_rx_avail = 0, pkt_rx_data = 0,  pkt_rx_eop = 0, pkt_rx_val = 0,
#                                         pkt_rx_sop = 0, pkt_rx_mod = 0,pkt_rx_err = 0
# UVM_INFO ../src/tb/in_mon.sv(76) @ 13200: uvm_test_top.xgemac_env_h.in_agent_h.in_mon_h [in_mon] [IN MONITOR] pkt_tx_data = 0, pkt_tx_sop = 0, pkt_tx_eop = 0, pkt_tx_val = 0, pkt_tx_mod = 0, pkt_tx_full = 0
# UVM_INFO ../src/tb/wish_mon.sv(42) @ 15000: uvm_test_top.xgemac_env_h.wish_agent_h.wish_mon_h [wish_mon] [WISHBONE MONITOR WRITE TASK] write_address = 0, write_data = 0
# ------------------------------------------------------ 
# UVM_INFO ../src/tb/reset_drv.sv(107) @ 15000: uvm_test_top.xgemac_env_h.reset_agent_h.reset_drv_h [reset_drv] [WISHBONE RESET DRIVER TASK] wb_rst_i = 1
# ---------------------------------------------------------------------------------------------------------------------
# Name                           Type            Size  Value                                                           
# ---------------------------------------------------------------------------------------------------------------------
# req                            reset_seq_item  -     @1060                                                           
#   reset_156m25_n               integral        1     'h0                                                             
#   wb_rst_i                     integral        1     'h1                                                             
#   begin_time                   time            64    0                                                               
#   end_time                     time            64    15000                                                           
#   depth                        int             32    'd2                                                             
#   parent sequence (name)       string          11    reset_seq_h                                                     
#   parent sequence (full name)  string          64    uvm_test_top.xgemac_env_h.reset_agent_h.reset_seqr_h.reset_seq_h
#   sequencer                    string          52    uvm_test_top.xgemac_env_h.reset_agent_h.reset_seqr_h            
# ---------------------------------------------------------------------------------------------------------------------
# UVM_INFO ../src/tb/reset_seq.sv(29) @ 15000: uvm_test_top.xgemac_env_h.reset_agent_h.reset_seqr_h@@reset_seq_h [reset_seq] Reset de-assertion
# UVM_INFO ../src/tb/wish_drv.sv(46) @ 15000: uvm_test_top.xgemac_env_h.wish_agent_h.wish_drv_h [wish_drv] [WISHBONE DRIVER WRITE TASK] write_address = 10, write_data = ffffffff
# ----------------------------------------------------- 
# UVM_INFO ../src/tb/in_mon.sv(76) @ 15600: uvm_test_top.xgemac_env_h.in_agent_h.in_mon_h [in_mon] [IN MONITOR] pkt_tx_data = 0, pkt_tx_sop = 0, pkt_tx_eop = 0, pkt_tx_val = 0, pkt_tx_mod = 0, pkt_tx_full = 0
# UVM_INFO ../src/tb/out_mon.sv(96) @ 15600: uvm_test_top.xgemac_env_h.out_agent_h.out_mon_h [out_mon] [OUT MONITOR] pkt_rx_avail = 0, pkt_rx_data = 0,  pkt_rx_eop = 0, pkt_rx_val = 0,
#                                         pkt_rx_sop = 0, pkt_rx_mod = 0,pkt_rx_err = 0
# UVM_INFO ../src/tb/out_mon.sv(96) @ 18000: uvm_test_top.xgemac_env_h.out_agent_h.out_mon_h [out_mon] [OUT MONITOR] pkt_rx_avail = 0, pkt_rx_data = 0,  pkt_rx_eop = 0, pkt_rx_val = 0,
#                                         pkt_rx_sop = 0, pkt_rx_mod = 0,pkt_rx_err = 0
# UVM_INFO ../src/tb/in_mon.sv(76) @ 18000: uvm_test_top.xgemac_env_h.in_agent_h.in_mon_h [in_mon] [IN MONITOR] pkt_tx_data = 0, pkt_tx_sop = 0, pkt_tx_eop = 0, pkt_tx_val = 0, pkt_tx_mod = 0, pkt_tx_full = 0
# UVM_INFO ../src/tb/reset_drv.sv(96) @ 18000: uvm_test_top.xgemac_env_h.reset_agent_h.reset_drv_h [reset_drv] [PKT RESET DRIVER TASK] reset_156m25_n = 1
# UVM_INFO ../src/tb/in_mon.sv(76) @ 20400: uvm_test_top.xgemac_env_h.in_agent_h.in_mon_h [in_mon] [IN MONITOR] pkt_tx_data = 0, pkt_tx_sop = 0, pkt_tx_eop = 0, pkt_tx_val = 0, pkt_tx_mod = 0, pkt_tx_full = 0
# UVM_INFO ../src/tb/out_mon.sv(96) @ 20400: uvm_test_top.xgemac_env_h.out_agent_h.out_mon_h [out_mon] [OUT MONITOR] pkt_rx_avail = 0, pkt_rx_data = 0,  pkt_rx_eop = 0, pkt_rx_val = 0,
#                                         pkt_rx_sop = 0, pkt_rx_mod = 0,pkt_rx_err = 0
# UVM_INFO ../src/tb/out_mon.sv(96) @ 22800: uvm_test_top.xgemac_env_h.out_agent_h.out_mon_h [out_mon] [OUT MONITOR] pkt_rx_avail = 0, pkt_rx_data = 0,  pkt_rx_eop = 0, pkt_rx_val = 0,
#                                         pkt_rx_sop = 0, pkt_rx_mod = 0,pkt_rx_err = 0
# UVM_INFO ../src/tb/in_mon.sv(76) @ 22800: uvm_test_top.xgemac_env_h.in_agent_h.in_mon_h [in_mon] [IN MONITOR] pkt_tx_data = 908095efb7c21435, pkt_tx_sop = 1, pkt_tx_eop = 0, pkt_tx_val = 1, pkt_tx_mod = 0, pkt_tx_full = 0
# UVM_INFO ../src/tb/wish_mon.sv(42) @ 25000: uvm_test_top.xgemac_env_h.wish_agent_h.wish_mon_h [wish_mon] [WISHBONE MONITOR WRITE TASK] write_address = 0, write_data = 1
# ------------------------------------------------------ 
# UVM_INFO ../src/tb/wish_drv.sv(58) @ 25000: uvm_test_top.xgemac_env_h.wish_agent_h.wish_drv_h [wish_drv] [WISHBONE DRIVER READ TASK] read_address = 0
# ------------------------------------------------------ 
# UVM_INFO ../src/tb/in_mon.sv(76) @ 25200: uvm_test_top.xgemac_env_h.in_agent_h.in_mon_h [in_mon] [IN MONITOR] pkt_tx_data = e59cb9ee89599a07, pkt_tx_sop = 0, pkt_tx_eop = 0, pkt_tx_val = 1, pkt_tx_mod = 0, pkt_tx_full = 0
# UVM_INFO ../src/tb/out_mon.sv(96) @ 25200: uvm_test_top.xgemac_env_h.out_agent_h.out_mon_h [out_mon] [OUT MONITOR] pkt_rx_avail = 0, pkt_rx_data = 0,  pkt_rx_eop = 0, pkt_rx_val = 0,
#                                         pkt_rx_sop = 0, pkt_rx_mod = 0,pkt_rx_err = 0
# UVM_INFO ../src/tb/out_mon.sv(96) @ 27600: uvm_test_top.xgemac_env_h.out_agent_h.out_mon_h [out_mon] [OUT MONITOR] pkt_rx_avail = 0, pkt_rx_data = 0,  pkt_rx_eop = 0, pkt_rx_val = 0,
#                                         pkt_rx_sop = 0, pkt_rx_mod = 0,pkt_rx_err = 0
# UVM_INFO ../src/tb/in_mon.sv(76) @ 27600: uvm_test_top.xgemac_env_h.in_agent_h.in_mon_h [in_mon] [IN MONITOR] pkt_tx_data = b6b8c588adefabc1, pkt_tx_sop = 0, pkt_tx_eop = 0, pkt_tx_val = 1, pkt_tx_mod = 0, pkt_tx_full = 0
# UVM_INFO ../src/tb/in_mon.sv(76) @ 30000: uvm_test_top.xgemac_env_h.in_agent_h.in_mon_h [in_mon] [IN MONITOR] pkt_tx_data = 7fd1f0a7df89d274, pkt_tx_sop = 0, pkt_tx_eop = 0, pkt_tx_val = 1, pkt_tx_mod = 0, pkt_tx_full = 0
# UVM_INFO ../src/tb/out_mon.sv(96) @ 30000: uvm_test_top.xgemac_env_h.out_agent_h.out_mon_h [out_mon] [OUT MONITOR] pkt_rx_avail = 0, pkt_rx_data = 0,  pkt_rx_eop = 0, pkt_rx_val = 0,
#                                         pkt_rx_sop = 0, pkt_rx_mod = 0,pkt_rx_err = 0
# UVM_INFO ../src/tb/out_mon.sv(96) @ 32400: uvm_test_top.xgemac_env_h.out_agent_h.out_mon_h [out_mon] [OUT MONITOR] pkt_rx_avail = 0, pkt_rx_data = 0,  pkt_rx_eop = 0, pkt_rx_val = 0,
#                                         pkt_rx_sop = 0, pkt_rx_mod = 0,pkt_rx_err = 0
# UVM_INFO ../src/tb/in_mon.sv(76) @ 32400: uvm_test_top.xgemac_env_h.in_agent_h.in_mon_h [in_mon] [IN MONITOR] pkt_tx_data = 74b3f929c7f4ffb4, pkt_tx_sop = 0, pkt_tx_eop = 0, pkt_tx_val = 1, pkt_tx_mod = 0, pkt_tx_full = 0
# UVM_INFO ../src/tb/in_mon.sv(76) @ 34800: uvm_test_top.xgemac_env_h.in_agent_h.in_mon_h [in_mon] [IN MONITOR] pkt_tx_data = d83f70a9cdc2c768, pkt_tx_sop = 0, pkt_tx_eop = 0, pkt_tx_val = 1, pkt_tx_mod = 0, pkt_tx_full = 0
# UVM_INFO ../src/tb/out_mon.sv(96) @ 34800: uvm_test_top.xgemac_env_h.out_agent_h.out_mon_h [out_mon] [OUT MONITOR] pkt_rx_avail = 0, pkt_rx_data = 0,  pkt_rx_eop = 0, pkt_rx_val = 0,
#                                         pkt_rx_sop = 0, pkt_rx_mod = 0,pkt_rx_err = 0
# UVM_INFO ../src/tb/wish_mon.sv(59) @ 35000: uvm_test_top.xgemac_env_h.wish_agent_h.wish_mon_h [wish_mon] [WISHBONE MONITOR READ TASK] read_address = 10, read_data = 0
# ------------------------------------------------------ 
# UVM_INFO ../src/tb/reset_drv.sv(107) @ 35000: uvm_test_top.xgemac_env_h.reset_agent_h.reset_drv_h [reset_drv] [WISHBONE RESET DRIVER TASK] wb_rst_i = 0
# ---------------------------------------------------------------------------------------------------------------------
# Name                           Type            Size  Value                                                           
# ---------------------------------------------------------------------------------------------------------------------
# req                            reset_seq_item  -     @1162                                                           
#   reset_156m25_n               integral        1     'h1                                                             
#   wb_rst_i                     integral        1     'h0                                                             
#   begin_time                   time            64    15000                                                           
#   end_time                     time            64    35000                                                           
#   depth                        int             32    'd2                                                             
#   parent sequence (name)       string          11    reset_seq_h                                                     
#   parent sequence (full name)  string          64    uvm_test_top.xgemac_env_h.reset_agent_h.reset_seqr_h.reset_seq_h
#   sequencer                    string          52    uvm_test_top.xgemac_env_h.reset_agent_h.reset_seqr_h            
# ---------------------------------------------------------------------------------------------------------------------
# UVM_INFO ../src/tb/reset_seq.sv(41) @ 35000: uvm_test_top.xgemac_env_h.reset_agent_h.reset_seqr_h@@reset_seq_h [reset_seq] Reset sequence completed
# UVM_INFO ../src/tb/wish_drv.sv(58) @ 35000: uvm_test_top.xgemac_env_h.wish_agent_h.wish_drv_h [wish_drv] [WISHBONE DRIVER READ TASK] read_address = 8
# ------------------------------------------------------ 
# UVM_INFO ../src/tb/out_mon.sv(96) @ 37200: uvm_test_top.xgemac_env_h.out_agent_h.out_mon_h [out_mon] [OUT MONITOR] pkt_rx_avail = 0, pkt_rx_data = 0,  pkt_rx_eop = 0, pkt_rx_val = 0,
#                                         pkt_rx_sop = 0, pkt_rx_mod = 0,pkt_rx_err = 0
